home – The Iterated Prisoners’ Dilemma | JP Monteagudo
…
results <- bench::press(
     iter = c(10,50,100,300,500,700,900,1000),
     bench.comp.alg(iter)
 )

#> A tibble: 24 × 14
#>   expression  iter    min median `itr/sec` mem_alloc `gc/sec` n_itr  n_gc total_time result memory                   time            gc      
#>   <bch:expr> <dbl>  <dbl>  <dbl>     <dbl> <bch:byt>    <dbl> <int> <dbl>      <dbl> <list> <list>                   <list>          <list>  
#>  1 Copy          10   31.3   32.6    30.6      6.51MB     40.8     6     8       196. <NULL> <Rprofmem [4,132 × 3]>   <bench_tm [14]> <tibble>
#>  2 Exact         10   29.7   30.8    32.2      6.51MB     32.2     8     8       248. <NULL> <Rprofmem [4,131 × 3]>   <bench_tm [16]> <tibble>
#>  3 tft           10   30.8   32.4    30.8      6.51MB     30.8     7     7       227. <NULL> <Rprofmem [4,131 × 3]>   <bench_tm [14]> <tibble>
#>  4 Copy          50  207.   222.      4.40    32.55MB     14.7     3    10       681. <NULL> <Rprofmem [20,668 × 3]>  <bench_tm [3]>  <tibble>
#>  5 Exact         50  258.   262.      3.82    32.55MB     11.5     2     6       524. <NULL> <Rprofmem [20,806 × 3]>  <bench_tm [2]>  <tibble>
 #> 6 tft           50  205.   266.      4.03    32.55MB     10.8     3     8       744. <NULL> <Rprofmem [20,808 × 3]>  <bench_tm [3]>  <tibble>
#>  7 Copy         100  576.   576.      1.74    65.09MB     12.2     1     7       576. <NULL> <Rprofmem [41,418 × 3]>  <bench_tm [1]>  <tibble>
#>  8 Exact        100  400.   411.      2.43    65.09MB     14.6     2    12       821. <NULL> <Rprofmem [41,400 × 3]>  <bench_tm [2]>  <tibble>
#>  9 tft          100  372.   390.      2.57    65.09MB     15.4     2    12       780. <NULL> <Rprofmem [41,461 × 3]>  <bench_tm [2]>  <tibble>
#> 10 Copy         300 1254.  1254.      0.798  195.27MB     10.4     1    13      1254. <NULL> <Rprofmem [123,916 × 3]> <bench_tm [1]>  <tibble>
# ℹ 14 more rows
# ℹ Use `print(n = ...)` to see more rows
…
results <- bench::press(
     iter = c(10,50,100,300,500,700,900,1000),
     bench.comp.alg(iter)
 )

#> A tibble: 24 × 14
#>   expression  iter    min median `itr/sec` mem_alloc `gc/sec` n_itr  n_gc total_time result memory                   time            gc      
#>   <bch:expr> <dbl>  <dbl>  <dbl>     <dbl> <bch:byt>    <dbl> <int> <dbl>      <dbl> <list> <list>                   <list>          <list>  
#>  1 Copy          10   31.3   32.6    30.6      6.51MB     40.8     6     8       196. <NULL> <Rprofmem [4,132 × 3]>   <bench_tm [14]> <tibble>
#>  2 Exact         10   29.7   30.8    32.2      6.51MB     32.2     8     8       248. <NULL> <Rprofmem [4,131 × 3]>   <bench_tm [16]> <tibble>
#>  3 tft           10   30.8   32.4    30.8      6.51MB     30.8     7     7       227. <NULL> <Rprofmem [4,131 × 3]>   <bench_tm [14]> <tibble>
#>  4 Copy          50  207.   222.      4.40    32.55MB     14.7     3    10       681. <NULL> <Rprofmem [20,668 × 3]>  <bench_tm [3]>  <tibble>
#>  5 Exact         50  258.   262.      3.82    32.55MB     11.5     2     6       524. <NULL> <Rprofmem [20,806 × 3]>  <bench_tm [2]>  <tibble>
 #> 6 tft           50  205.   266.      4.03    32.55MB     10.8     3     8       744. <NULL> <Rprofmem [20,808 × 3]>  <bench_tm [3]>  <tibble>
#>  7 Copy         100  576.   576.      1.74    65.09MB     12.2     1     7       576. <NULL> <Rprofmem [41,418 × 3]>  <bench_tm [1]>  <tibble>
#>  8 Exact        100  400.   411.      2.43    65.09MB     14.6     2    12       821. <NULL> <Rprofmem [41,400 × 3]>  <bench_tm [2]>  <tibble>
#>  9 tft          100  372.   390.      2.57    65.09MB     15.4     2    12       780. <NULL> <Rprofmem [41,461 × 3]>  <bench_tm [2]>  <tibble>
#> 10 Copy         300 1254.  1254.      0.798  195.27MB     10.4     1    13      1254. <NULL> <Rprofmem [123,916 × 3]> <bench_tm [1]>  <tibble>
# ℹ 14 more rows
# ℹ Use `print(n = ...)` to see more rows
```
…
